{
	"additionalNodes": [ {
		"children": [ {
			"children": [],
			"id": "etQThYwRQpkKmeU7SBEWYXW2id1BtE7V",
			"nodeType": "luaCommand",
			"parameters": [ {
				"name": "var",
				"value": "allMyUnits"
			}, {
				"name": "value",
				"value": "Spring.GetTeamUnits(Spring.GetMyTeamID())"
			}, {
				"name": "scriptName",
				"value": "store"
			} ],
			"scriptName": "store"
		}, {
			"children": [],
			"id": "Lv4GsoX8po5jx9MLNEkOpVBYWNvlUl7T",
			"nodeType": "luaCommand",
			"parameters": [ {
				"name": "var",
				"value": "atlas_category"
			}, {
				"name": "value",
				"value": "Categories.nota_dal_swampdota.Atlas"
			}, {
				"name": "scriptName",
				"value": "store"
			} ],
			"scriptName": "store"
		}, {
			"children": [],
			"id": "vyj8gUVf5Xdlv1IuG2aBTqGD9dI9xn7K",
			"nodeType": "luaCommand",
			"parameters": [ {
				"name": "var",
				"value": "radars_category"
			}, {
				"name": "value",
				"value": "Categories.nota_dal_swampdota.radar"
			}, {
				"name": "scriptName",
				"value": "store"
			} ],
			"scriptName": "store"
		}, {
			"children": [],
			"id": "FOOjeWUzEE4wRTQx69rNbC1L3Q7R0Y2O",
			"nodeType": "luaCommand",
			"parameters": [ {
				"name": "var",
				"value": "boxes_category"
			}, {
				"name": "value",
				"value": "Categories.nota_dal_swampdota.box"
			}, {
				"name": "scriptName",
				"value": "store"
			} ],
			"scriptName": "store"
		}, {
			"children": [],
			"id": "ZfWwbsWU4QJ1ZZw2BR9DE2D48bOKm5l1",
			"nodeType": "luaCommand",
			"parameters": [ {
				"name": "var",
				"value": "Atlas"
			}, {
				"name": "value",
				"value": "core.FilterUnitsByCategory(allMyUnits,atlas_category)"
			}, {
				"name": "scriptName",
				"value": "store"
			} ],
			"scriptName": "store"
		}, {
			"children": [],
			"id": "N9wh9litxIYHdARNC8wrqNCX5hg3SfPX",
			"nodeType": "luaCommand",
			"parameters": [ {
				"name": "var",
				"value": "Radars"
			}, {
				"name": "value",
				"value": "core.FilterUnitsByCategory(allMyUnits,radars_category)"
			}, {
				"name": "scriptName",
				"value": "store"
			} ],
			"scriptName": "store"
		}, {
			"children": [],
			"id": "X8OziulbN0LcvVqGa10jeHcJ7andgWhi",
			"nodeType": "luaCommand",
			"parameters": [ {
				"name": "var",
				"value": "Boxes"
			}, {
				"name": "value",
				"value": "core.FilterUnitsByCategory(allMyUnits,boxes_category)"
			}, {
				"name": "scriptName",
				"value": "store"
			} ],
			"scriptName": "store"
		}, {
			"children": [],
			"id": "LrpbpESCQgWV3C92PVynSCDqeIxWJ4a6",
			"nodeType": "luaCommand",
			"parameters": [ {
				"name": "var",
				"value": "bb.Boxes"
			}, {
				"name": "value",
				"value": "Boxes"
			}, {
				"name": "scriptName",
				"value": "store"
			} ],
			"scriptName": "store"
		}, {
			"children": [],
			"id": "w6v6HyfwNtSh6iKPkgFNENFAltpowksf",
			"nodeType": "luaCommand",
			"parameters": [ {
				"name": "var",
				"value": "bb.Atlas"
			}, {
				"name": "value",
				"value": "Atlas"
			}, {
				"name": "scriptName",
				"value": "store"
			} ],
			"scriptName": "store"
		}, {
			"children": [],
			"id": "0jqUUfk22sXyOy3Vd2zsuw6CV14YDB8R",
			"nodeType": "luaCommand",
			"parameters": [ {
				"name": "var",
				"value": "bb.Radars"
			}, {
				"name": "value",
				"value": "Radars"
			}, {
				"name": "scriptName",
				"value": "store"
			} ],
			"scriptName": "store"
		} ],
		"id": "pICEQ9SpgbcDOx2vUHsMUh6u5GnhPnGU",
		"nodeType": "sequence",
		"parameters": []
	} ],
	"additionalParameters": {
		"root": {
			"height": 130,
			"width": 180
		}
	},
	"inputs": [],
	"outputs": [],
	"properties": {
		"0jqUUfk22sXyOy3Vd2zsuw6CV14YDB8R": {
			"height": 92,
			"title": "store",
			"width": 136,
			"x": 727,
			"y": 1304
		},
		"4glWTqhV7tMEGbxmn8vUeIeARpXesM7Q": {
			"height": 60,
			"title": "sequence",
			"width": 143,
			"x": 264,
			"y": 9
		},
		"FOOjeWUzEE4wRTQx69rNbC1L3Q7R0Y2O": {
			"height": 94,
			"title": "store",
			"width": 531,
			"x": 678,
			"y": 437
		},
		"HjV2kF4NYt4MiMXOLWPEeCRPvkRnzO86": {
			"height": 94,
			"title": "store",
			"width": 195,
			"x": 465,
			"y": 2
		},
		"LrpbpESCQgWV3C92PVynSCDqeIxWJ4a6": {
			"height": 92,
			"title": "store",
			"width": 131,
			"x": 721,
			"y": 966
		},
		"Lv4GsoX8po5jx9MLNEkOpVBYWNvlUl7T": {
			"height": 94,
			"title": "store",
			"width": 531,
			"x": 666,
			"y": 218
		},
		"N9wh9litxIYHdARNC8wrqNCX5hg3SfPX": {
			"height": 94,
			"title": "store",
			"width": 531,
			"x": 667,
			"y": 705
		},
		"X8OziulbN0LcvVqGa10jeHcJ7andgWhi": {
			"height": 94,
			"title": "store",
			"width": 531,
			"x": 660,
			"y": 839
		},
		"YYDyUF2890BeXXUcwmwsLSQboKrswegz": {
			"height": 94,
			"title": "store",
			"width": 195,
			"x": 461,
			"y": -127
		},
		"ZfWwbsWU4QJ1ZZw2BR9DE2D48bOKm5l1": {
			"height": 94,
			"title": "store",
			"width": 531,
			"x": 664,
			"y": 573
		},
		"etQThYwRQpkKmeU7SBEWYXW2id1BtE7V": {
			"height": 94,
			"title": "store",
			"width": 379,
			"x": 660,
			"y": 104
		},
		"pICEQ9SpgbcDOx2vUHsMUh6u5GnhPnGU": {
			"height": 60,
			"title": "sequence",
			"width": 143,
			"x": 305,
			"y": 405
		},
		"vyj8gUVf5Xdlv1IuG2aBTqGD9dI9xn7K": {
			"height": 94,
			"title": "store",
			"width": 531,
			"x": 655,
			"y": 323
		},
		"w6v6HyfwNtSh6iKPkgFNENFAltpowksf": {
			"height": 92,
			"title": "store",
			"width": 131,
			"x": 741,
			"y": 1073
		}
	},
	"roles": [ {
		"categories": [],
		"name": "Role 0"
	} ],
	"root": {
		"children": [ {
			"children": [],
			"id": "YYDyUF2890BeXXUcwmwsLSQboKrswegz",
			"nodeType": "luaCommand",
			"parameters": [ {
				"name": "var",
				"value": "bb.lanes"
			}, {
				"name": "value",
				"value": "CreateLanesDS()"
			}, {
				"name": "scriptName",
				"value": "store"
			} ],
			"scriptName": "store"
		}, {
			"children": [],
			"id": "HjV2kF4NYt4MiMXOLWPEeCRPvkRnzO86",
			"nodeType": "luaCommand",
			"parameters": [ {
				"name": "var",
				"value": "bb.AllTeamsID"
			}, {
				"name": "value",
				"value": "GetTeams()"
			}, {
				"name": "scriptName",
				"value": "store"
			} ],
			"scriptName": "store"
		} ],
		"id": "4glWTqhV7tMEGbxmn8vUeIeARpXesM7Q",
		"nodeType": "sequence",
		"parameters": []
	}
}